…
1. Use the function(s) of your choice to get an idea of its structure, including how NA's are treated. Are the data tidy? 

```r
deserts
```

```
## # A tibble: 34,786 x 13
##    record_id month   day  year plot_id species_id sex   hindfoot_length weight
##        <dbl> <dbl> <dbl> <dbl>   <dbl> <chr>      <chr>           <dbl>  <dbl>
##  1         1     7    16  1977       2 NL         M                  32     NA
##  2         2     7    16  1977       3 NL         M                  33     NA
##  3         3     7    16  1977       2 DM         F                  37     NA
##  4         4     7    16  1977       7 DM         M                  36     NA
##  5         5     7    16  1977       3 DM         M                  35     NA
##  6         6     7    16  1977       1 PF         M                  14     NA
##  7         7     7    16  1977       2 PE         F                  NA     NA
##  8         8     7    16  1977       1 DM         M                  37     NA
##  9         9     7    16  1977       1 DM         F                  34     NA
## 10        10     7    16  1977       6 PF         F                  20     NA
## # ... with 34,776 more rows, and 4 more variables: genus <chr>, species <chr>,
## #   taxa <chr>, plot_type <chr>
```
…
The data are tidy. (But what about plot type?)

2. How many genera and species are represented in the data? What are the total number of observations? Which species is most/ least frequently sampled in the study?

```r
deserts %>% 
  count(genus) %>% 
  arrange(desc(n))
```

```
## # A tibble: 26 x 2
##    genus                n
##    <chr>            <int>
##  1 Dipodomys        16167
##  2 Chaetodipus       6029
##  3 Onychomys         3267
##  4 Reithrodontomys   2694
##  5 Peromyscus        2234
##  6 Perognathus       1629
##  7 Neotoma           1252
##  8 Ammospermophilus   437
##  9 Amphispiza         303
## 10 Spermophilus       249
## # ... with 16 more rows
```

```r
deserts %>%
  group_by(genus, species) %>% 
  summarize(total_n=n(),
            total_observations=sum(total_n)) %>% 
  arrange(desc(total_n))
```

```
## `summarise()` has grouped output by 'genus'. You can override using the `.groups` argument.
```

```
## # A tibble: 48 x 4
## # Groups:   genus [26]
##    genus           species      total_n total_observations
##    <chr>           <chr>          <int>              <int>
##  1 Dipodomys       merriami       10596              10596
##  2 Chaetodipus     penicillatus    3123               3123
##  3 Dipodomys       ordii           3027               3027
##  4 Chaetodipus     baileyi         2891               2891
##  5 Reithrodontomys megalotis       2609               2609
##  6 Dipodomys       spectabilis     2504               2504
##  7 Onychomys       torridus        2249               2249
##  8 Perognathus     flavus          1597               1597
##  9 Peromyscus      eremicus        1299               1299
## 10 Neotoma         albigula        1252               1252
## # ... with 38 more rows
```
…
9. Which two species have, on average, the highest weight? Once you have identified them, make a new column that is a ratio of `weight` to `hindfoot_length`. Make a plot that shows the range of this new ratio and fill by sex.

```r
deserts %>% 
  group_by(species) %>% 
  filter(weight !="NA") %>%
  summarize(average_weight=mean(weight)) %>% 
  arrange(desc(average_weight))
```

```
## # A tibble: 22 x 2
##    species      average_weight
##    <chr>                 <dbl>
##  1 albigula              159. 
##  2 spectabilis           120. 
##  3 spilosoma              93.5
##  4 hispidus               65.6
##  5 fulviventer            58.9
##  6 ochrognathus           55.4
##  7 ordii                  48.9
##  8 merriami               43.2
##  9 baileyi                31.7
## 10 leucogaster            31.6
## # ... with 12 more rows
```
…
