…
```r
gapminder %>% 
  group_by(continent, year) %>%
  filter(between(year, 1952, 2007)) %>%
  summarize(mean_lifeExp=mean(lifeExp))
```

```
## `summarise()` has grouped output by 'continent'. You can override using the `.groups` argument.
```

```
## # A tibble: 60 x 3
## # Groups:   continent [5]
##    continent  year mean_lifeExp
##    <fct>     <int>        <dbl>
##  1 Africa     1952         39.1
##  2 Africa     1957         41.3
##  3 Africa     1962         43.3
##  4 Africa     1967         45.3
##  5 Africa     1972         47.5
##  6 Africa     1977         49.6
##  7 Africa     1982         51.6
##  8 Africa     1987         53.3
##  9 Africa     1992         53.6
## 10 Africa     1997         53.6
## # … with 50 more rows
```
…
```r
gapminder %>% 
  group_by(continent, year) %>%
  filter(between(year, 1952, 2007)) %>%
  summarize(mean_lifeExp=mean(lifeExp),
            min_lifeExp=min(lifeExp),
            max_lifeExp=max(lifeExp))
```

```
## `summarise()` has grouped output by 'continent'. You can override using the `.groups` argument.
```

```
## # A tibble: 60 x 5
## # Groups:   continent [5]
##    continent  year mean_lifeExp min_lifeExp max_lifeExp
##    <fct>     <int>        <dbl>       <dbl>       <dbl>
##  1 Africa     1952         39.1        30          52.7
##  2 Africa     1957         41.3        31.6        58.1
##  3 Africa     1962         43.3        32.8        60.2
##  4 Africa     1967         45.3        34.1        61.6
##  5 Africa     1972         47.5        35.4        64.3
##  6 Africa     1977         49.6        36.8        67.1
##  7 Africa     1982         51.6        38.4        69.9
##  8 Africa     1987         53.3        39.9        71.9
##  9 Africa     1992         53.6        23.6        73.6
## 10 Africa     1997         53.6        36.1        74.8
## # … with 50 more rows
```
…
**7. Which countries have had the largest population growth since 1952?**

```r
gapminder %>%
  filter(year >=1952) %>%
  select(country, pop, year) %>% 
  group_by(country) %>%
  summarize(sum_pop_growth=sum(pop)) %>% 
  arrange(desc(sum_pop_growth))
```

```
## # A tibble: 142 x 2
##    country       sum_pop_growth
##    <fct>                  <dbl>
##  1 China            11497920623
##  2 India             8413568878
##  3 United States     2738534790
##  4 Indonesia         1779874000
##  5 Brazil            1467745520
##  6 Japan             1341105696
##  7 Pakistan          1124200629
##  8 Bangladesh        1089064744
##  9 Germany            930564520
## 10 Nigeria            884496214
## # … with 132 more rows
```
```r
gapminder$year <- as.character(gapminder$year)
```



```r
gapminder %>% 
  filter(year == 1952 | year==2007) %>% 
  select(country, pop, year) %>%   #Somehow take difference in years from here
  separate(year, c("1952", "2007"), extra = "drop", fill = "right") #Trying to shift 2007 values to the right
```

```
## # A tibble: 284 x 4
##    country          pop `1952` `2007`
##    <fct>          <int> <chr>  <chr> 
##  1 Afghanistan  8425333 1952   <NA>  
##  2 Afghanistan 31889923 2007   <NA>  
##  3 Albania      1282697 1952   <NA>  
##  4 Albania      3600523 2007   <NA>  
##  5 Algeria      9279525 1952   <NA>  
##  6 Algeria     33333216 2007   <NA>  
##  7 Angola       4232095 1952   <NA>  
##  8 Angola      12420476 2007   <NA>  
##  9 Argentina   17876956 1952   <NA>  
## 10 Argentina   40301927 2007   <NA>  
## # … with 274 more rows
```
```r
#Another way a classmate suggested and got different results:
gapminder_7 <-  gapminder %>% 
  filter(year == 1952 | year==2007) %>% 
  select(country, pop, year) %>% 
  group_by(country) %>% 
  mutate(growth=pop-lag(pop,default = pop[1])) %>% 
  filter(year==2007) %>% 
  summarize(country, growth) %>% 
  arrange(desc(growth))
gapminder_7
```

```
## # A tibble: 142 x 2
##    country          growth
##    <fct>             <int>
##  1 China         762419569
##  2 India         738396331
##  3 United States 143586947
##  4 Indonesia     141495000
##  5 Brazil        133408087
##  6 Pakistan      127924057
##  7 Bangladesh    103561480
##  8 Nigeria       101912068
##  9 Mexico         78556574
## 10 Philippines    68638596
## # … with 132 more rows
```
…
