…
```r
colleges
```

```
## # A tibble: 341 x 10
##    INSTNM CITY  STABBR ZIP   ADM_RATE SAT_AVG PCIP26 COSTT4_A C150_4_POOLED
##    <chr>  <chr> <chr>  <chr>    <dbl>   <dbl>  <dbl>    <dbl>         <dbl>
##  1 Gross~ El C~ CA     9202~       NA      NA 0.0016     7956        NA    
##  2 Colle~ Visa~ CA     9327~       NA      NA 0.0066     8109        NA    
##  3 Colle~ San ~ CA     9440~       NA      NA 0.0038     8278        NA    
##  4 Ventu~ Vent~ CA     9300~       NA      NA 0.0035     8407        NA    
##  5 Oxnar~ Oxna~ CA     9303~       NA      NA 0.0085     8516        NA    
##  6 Moorp~ Moor~ CA     9302~       NA      NA 0.0151     8577        NA    
##  7 Skyli~ San ~ CA     9406~       NA      NA 0          8580         0.233
##  8 Glend~ Glen~ CA     9120~       NA      NA 0.002      9181        NA    
##  9 Citru~ Glen~ CA     9174~       NA      NA 0.0021     9281        NA    
## 10 Fresn~ Fres~ CA     93741       NA      NA 0.0324     9370        NA    
## # ... with 331 more rows, and 1 more variable: PFTFTUG1_EF <dbl>
```
…
1. Use your preferred function(s) to have a look at the data and get an idea of its structure. Make sure you summarize NA's and determine whether or not the data are tidy. You may also consider dealing with any naming issues.

```r
colleges_clean <- janitor::clean_names(colleges)
colleges_clean
```

```
## # A tibble: 341 x 10
##    instnm city  stabbr zip   adm_rate sat_avg pcip26 costt4_a c150_4_pooled
##    <chr>  <chr> <chr>  <chr>    <dbl>   <dbl>  <dbl>    <dbl>         <dbl>
##  1 Gross~ El C~ CA     9202~       NA      NA 0.0016     7956        NA    
##  2 Colle~ Visa~ CA     9327~       NA      NA 0.0066     8109        NA    
##  3 Colle~ San ~ CA     9440~       NA      NA 0.0038     8278        NA    
##  4 Ventu~ Vent~ CA     9300~       NA      NA 0.0035     8407        NA    
##  5 Oxnar~ Oxna~ CA     9303~       NA      NA 0.0085     8516        NA    
##  6 Moorp~ Moor~ CA     9302~       NA      NA 0.0151     8577        NA    
##  7 Skyli~ San ~ CA     9406~       NA      NA 0          8580         0.233
##  8 Glend~ Glen~ CA     9120~       NA      NA 0.002      9181        NA    
##  9 Citru~ Glen~ CA     9174~       NA      NA 0.0021     9281        NA    
## 10 Fresn~ Fres~ CA     93741       NA      NA 0.0324     9370        NA    
## # ... with 331 more rows, and 1 more variable: pftftug1_ef <dbl>
```
…
2. Which cities in California have the highest number of colleges?

```r
colleges_clean %>% 
  select(city, instnm) %>% 
  group_by(city) %>%
  summarize(n=n(), .groups= 'keep') %>% 
  arrange(desc(n=n()))
```

```
## # A tibble: 161 x 2
## # Groups:   city [161]
##    city            n
##    <chr>       <int>
##  1 Alameda         3
##  2 Anaheim         4
##  3 Angwin          1
##  4 Aptos           1
##  5 Arcata          1
##  6 Atherton        1
##  7 Azusa           1
##  8 Bakersfield     3
##  9 Barstow         1
## 10 Belmont         1
## # ... with 151 more rows
```

```r
#Not sure why arrange isn't working
```

```r
colleges_clean %>%
  count(instnm, city, sort = T)
```

```
## # A tibble: 341 x 3
##    instnm                                         city              n
##    <chr>                                          <chr>         <int>
##  1 Academy of Art University                      San Francisco     1
##  2 Academy of Chinese Culture and Health Sciences Oakland           1
##  3 Allan Hancock College                          Santa Maria       1
##  4 Alliant International University-San Diego     San Diego         1
##  5 American Academy of Dramatic Arts-Los Angeles  Los Angeles       1
##  6 American Baptist Seminary of the West          Berkeley          1
##  7 American Beauty College                        West Covina       1
##  8 American Career College-Los Angeles            Los Angeles       1
##  9 American Conservatory Theater                  San Francisco     1
## 10 American Film Institute Conservatory           Los Angeles       1
## # ... with 331 more rows
```


```r
colleges_clean %>% # incorrect name
  count(city) %>% 
  arrange(desc(n))
```

```
## # A tibble: 161 x 2
##    city              n
##    <chr>         <int>
##  1 Los Angeles      24
##  2 San Diego        18
##  3 San Francisco    15
##  4 Sacramento       10
##  5 Berkeley          9
##  6 Oakland           9
##  7 Claremont         7
##  8 Pasadena          6
##  9 Fresno            5
## 10 Irvine            5
## # ... with 151 more rows
```
…
```r
colleges_clean %>%
  group_by(city, stabbr) %>% 
  summarize(max_average_cost = max(costt4_a),
            na.rm=TRUE) %>% 
  arrange(desc(max_average_cost))
```

```
## `summarise()` has grouped output by 'city'. You can override using the `.groups` argument.
```

```
## # A tibble: 161 x 4
## # Groups:   city [161]
##    city                stabbr max_average_cost na.rm
##    <chr>               <chr>             <dbl> <lgl>
##  1 Malibu              CA                66152 TRUE 
##  2 Valencia            CA                64686 TRUE 
##  3 Redlands            CA                61542 TRUE 
##  4 Moraga              CA                61095 TRUE 
##  5 Atherton            CA                56035 TRUE 
##  6 Thousand Oaks       CA                54373 TRUE 
##  7 Whittier            CA                53966 TRUE 
##  8 Rancho Palos Verdes CA                50758 TRUE 
##  9 La Verne            CA                50603 TRUE 
## 10 Belmont             CA                50415 TRUE 
## # ... with 151 more rows
```
…
