…
## Practice
1. Make a new new column that labels each specimen as occurring in a cave or on the surface. The word "Cave" is part of the locality information.

```r
#In some localities, says "cave," but no column if there's anything in a cave, so need to revisit package
spiders <- spiders %>% 
  mutate(troglo=if_else(str_detect(locality, "Cave"), "troglo", "epig")) 
#Use dplyr version of if_else
#If you find in the locality column, a string of characters that matches cave, put troglo and if not, put in EPIG
spiders
```

```
## # A tibble: 269 x 12
##    accession family  genus  country state county locality   date       collector
##        <dbl> <chr>   <chr>  <chr>   <chr> <chr>  <chr>      <date>     <chr>    
##  1   9038521 Telemi… Usofi… USA     Cali… Alame… Berkeley   2019-03-02 LM Smith 
##  2   9038522 Telemi… Usofi… USA     Cali… Alame… Castro Va… 2019-03-24 WM Pearce
##  3   9038523 Telemi… Usofi… USA     Cali… Alame… Niles, of… 2019-01-02 V Roth   
##  4   9038524 Telemi… Usofi… USA     Cali… Alame… Oakland    2019-02-18 WG Benti…
##  5   9038525 Telemi… Usofi… USA     Cali… Alame… Oakland    2019-01-25 R Schust…
##  6   9038526 Telemi… Usofi… USA     Cali… Alame… Oakland    2019-02-18 WC Benti…
##  7   9038527 Telemi… Usofi… USA     Cali… Alame… Oakland    2019-12-10 J Helfer 
##  8  90386281 Telemi… Usofi… USA     Cali… Alame… Oakland, … 2019-10-17 Roth, Sc…
##  9   9038529 Telemi… Usofi… USA     Cali… Alame… Oakland, … 2019-10-17 Roth, Sc…
## 10  90387441 Telemi… Usofi… USA     Cali… Alame… Berkeley,… 2019-02-17 PR Craig…
## # … with 259 more rows, and 3 more variables: latitude <dbl>, longitude <dbl>,
## #   troglo <chr>
```
…
