…
```r
naniar::miss_var_summary(wolves)
```

```
## # A tibble: 23 x 3
##    variable    n_miss pct_miss
##    <chr>        <int>    <dbl>
##  1 toxo_binary    827   41.6  
##  2 color          616   31.0  
##  3 chv_binary     548   27.6  
##  4 neo_binary     538   27.1  
##  5 cav_binary     321   16.2  
##  6 age_cat        102    5.14 
##  7 cdv_binary      21    1.06 
##  8 sex             19    0.957
##  9 cpv_binary       7    0.352
## 10 pop              0    0    
## # … with 13 more rows
```
…
```r
wolves_48_states %>% 
  mutate(mean_pack_size=mean(pack_size))
```

```
## # A tibble: 1,169 x 24
##    pop    year age_cat sex   color   lat  long habitat human pop_density
##    <chr> <dbl> <chr>   <chr> <chr> <dbl> <dbl>   <dbl> <dbl>       <dbl>
##  1 GTNP   2012 P       M     G      43.8 -111.  10375. 3924.        34.0
##  2 GTNP   2012 P       F     G      43.8 -111.  10375. 3924.        34.0
##  3 GTNP   2012 P       F     G      43.8 -111.  10375. 3924.        34.0
##  4 GTNP   2012 P       M     B      43.8 -111.  10375. 3924.        34.0
##  5 GTNP   2013 A       F     G      43.8 -111.  10375. 3924.        34.0
##  6 GTNP   2013 A       M     G      43.8 -111.  10375. 3924.        34.0
##  7 GTNP   2013 P       M     G      43.8 -111.  10375. 3924.        34.0
##  8 GTNP   2013 P       M     G      43.8 -111.  10375. 3924.        34.0
##  9 GTNP   2013 P       M     G      43.8 -111.  10375. 3924.        34.0
## 10 GTNP   2013 P       F     G      43.8 -111.  10375. 3924.        34.0
## # … with 1,159 more rows, and 14 more variables: pack_size <dbl>,
## #   standard_habitat <dbl>, standard_human <dbl>, standard_pop <dbl>,
## #   standard_packsize <dbl>, standard_latitude <dbl>, standard_longitude <dbl>,
## #   cav_binary <dbl>, cdv_binary <dbl>, cpv_binary <dbl>, chv_binary <dbl>,
## #   neo_binary <dbl>, toxo_binary <dbl>, mean_pack_size <dbl>
```
…
