…
```
##  [1] "name"       "Gender"     "Eye color"  "Race"       "Hair color"
##  [6] "Height"     "Publisher"  "Skin color" "Alignment"  "Weight"
```

```r
superhero_info_rename <- rename(superhero_info, gender="Gender", eye_color="Eye color", race="Race", hair_color="Hair color", height="Height", publisher="Publisher", skin_color="Skin color", alignment="Alignment", weight="Weight")
superhero_info_rename
```

```
## # A tibble: 734 x 10
##    name  gender eye_color race  hair_color height publisher skin_color alignment
##    <chr> <chr>  <chr>     <chr> <chr>       <dbl> <chr>     <chr>      <chr>    
##  1 A-Bo… Male   yellow    Human No Hair       203 Marvel C… <NA>       good     
##  2 Abe … Male   blue      Icth… No Hair       191 Dark Hor… blue       good     
##  3 Abin… Male   blue      Unga… No Hair       185 DC Comics red        good     
##  4 Abom… Male   green     Huma… No Hair       203 Marvel C… <NA>       bad      
##  5 Abra… Male   blue      Cosm… Black          NA Marvel C… <NA>       bad      
##  6 Abso… Male   blue      Human No Hair       193 Marvel C… <NA>       bad      
##  7 Adam… Male   blue      <NA>  Blond          NA NBC - He… <NA>       good     
##  8 Adam… Male   blue      Human Blond         185 DC Comics <NA>       good     
##  9 Agen… Female blue      <NA>  Blond         173 Marvel C… <NA>       good     
## 10 Agen… Male   brown     Human Brown         178 Marvel C… <NA>       good     
## # … with 724 more rows, and 1 more variable: weight <dbl>
```
…
```
## The following objects are masked from 'package:stats':
## 
##     chisq.test, fisher.test
```

The `clean_names` function takes care of everything in one line! Now that's a superpower!

```r
superhero_powers <- janitor::clean_names(superhero_powers)
superhero_powers
```

```
## # A tibble: 667 x 168
##    hero_names agility accelerated_hea… lantern_power_r… dimensional_awa…
##    <chr>      <lgl>   <lgl>            <lgl>            <lgl>           
##  1 3-D Man    TRUE    FALSE            FALSE            FALSE           
##  2 A-Bomb     FALSE   TRUE             FALSE            FALSE           
##  3 Abe Sapien TRUE    TRUE             FALSE            FALSE           
##  4 Abin Sur   FALSE   FALSE            TRUE             FALSE           
##  5 Abominati… FALSE   TRUE             FALSE            FALSE           
##  6 Abraxas    FALSE   FALSE            FALSE            TRUE            
##  7 Absorbing… FALSE   FALSE            FALSE            FALSE           
##  8 Adam Monr… FALSE   TRUE             FALSE            FALSE           
##  9 Adam Stra… FALSE   FALSE            FALSE            FALSE           
## 10 Agent Bob  FALSE   FALSE            FALSE            FALSE           
## # … with 657 more rows, and 163 more variables: cold_resistance <lgl>,
## #   durability <lgl>, stealth <lgl>, energy_absorption <lgl>, flight <lgl>,
## #   danger_sense <lgl>, underwater_breathing <lgl>, marksmanship <lgl>,
## #   weapons_master <lgl>, power_augmentation <lgl>, animal_attributes <lgl>,
## #   longevity <lgl>, intelligence <lgl>, super_strength <lgl>,
## #   cryokinesis <lgl>, telepathy <lgl>, energy_armor <lgl>,
## #   energy_blasts <lgl>, duplication <lgl>, size_changing <lgl>,
## #   density_control <lgl>, stamina <lgl>, astral_travel <lgl>,
## #   audio_control <lgl>, dexterity <lgl>, omnitrix <lgl>, super_speed <lgl>,
…
2. Notice that we have some neutral superheros! Who are they?

```r
superhero_info_rename %>% 
  select(name, alignment) %>% 
  filter(alignment == "neutral")
```

```
## # A tibble: 24 x 2
##    name         alignment
##    <chr>        <chr>    
##  1 Bizarro      neutral  
##  2 Black Flash  neutral  
##  3 Captain Cold neutral  
##  4 Copycat      neutral  
##  5 Deadpool     neutral  
##  6 Deathstroke  neutral  
##  7 Etrigan      neutral  
##  8 Galactus     neutral  
##  9 Gladiator    neutral  
## 10 Indigo       neutral  
## # … with 14 more rows
```

## `superhero_info`
3. Let's say we are only interested in the variables name, alignment, and "race". How would you isolate these variables from `superhero_info`?

```r
superhero_info_rename %>% 
  select(name, alignment, race)
```

```
## # A tibble: 734 x 3
##    name          alignment race             
##    <chr>         <chr>     <chr>            
##  1 A-Bomb        good      Human            
##  2 Abe Sapien    good      Icthyo Sapien    
##  3 Abin Sur      good      Ungaran          
##  4 Abomination   bad       Human / Radiation
##  5 Abraxas       bad       Cosmic Entity    
##  6 Absorbing Man bad       Human            
##  7 Adam Monroe   good      <NA>             
##  8 Adam Strange  good      Human            
##  9 Agent 13      good      <NA>             
## 10 Agent Bob     good      Human            
## # … with 724 more rows
```

## Not Human
4. List all of the superheros that are not human.

```r
superhero_info_rename %>% 
  filter(race !="Human")
```

```
## # A tibble: 222 x 10
##    name  gender eye_color race  hair_color height publisher skin_color alignment
##    <chr> <chr>  <chr>     <chr> <chr>       <dbl> <chr>     <chr>      <chr>    
##  1 Abe … Male   blue      Icth… No Hair       191 Dark Hor… blue       good     
##  2 Abin… Male   blue      Unga… No Hair       185 DC Comics red        good     
##  3 Abom… Male   green     Huma… No Hair       203 Marvel C… <NA>       bad      
##  4 Abra… Male   blue      Cosm… Black          NA Marvel C… <NA>       bad      
##  5 Ajax  Male   brown     Cybo… Black         193 Marvel C… <NA>       bad      
##  6 Alien Male   <NA>      Xeno… No Hair       244 Dark Hor… black      bad      
##  7 Amazo Male   red       Andr… <NA>          257 DC Comics <NA>       bad      
##  8 Angel Male   <NA>      Vamp… <NA>           NA Dark Hor… <NA>       good     
##  9 Ange… Female yellow    Muta… Black         165 Marvel C… <NA>       good     
## 10 Anti… Male   yellow    God … No Hair        61 DC Comics <NA>       bad      
## # … with 212 more rows, and 1 more variable: weight <dbl>
```

## Good and Evil
5. Let's make two different data frames, one focused on the "good guys" and another focused on the "bad guys".

```r
good_guys <- superhero_info_rename %>% 
  filter(alignment !="bad")
good_guys
```

```
## # A tibble: 520 x 10
##    name  gender eye_color race  hair_color height publisher skin_color alignment
##    <chr> <chr>  <chr>     <chr> <chr>       <dbl> <chr>     <chr>      <chr>    
##  1 A-Bo… Male   yellow    Human No Hair       203 Marvel C… <NA>       good     
##  2 Abe … Male   blue      Icth… No Hair       191 Dark Hor… blue       good     
##  3 Abin… Male   blue      Unga… No Hair       185 DC Comics red        good     
##  4 Adam… Male   blue      <NA>  Blond          NA NBC - He… <NA>       good     
##  5 Adam… Male   blue      Human Blond         185 DC Comics <NA>       good     
##  6 Agen… Female blue      <NA>  Blond         173 Marvel C… <NA>       good     
##  7 Agen… Male   brown     Human Brown         178 Marvel C… <NA>       good     
##  8 Agen… Male   <NA>      <NA>  <NA>          191 Marvel C… <NA>       good     
##  9 Alan… Male   blue      <NA>  Blond         180 DC Comics <NA>       good     
## 10 Alex… Male   <NA>      <NA>  <NA>           NA NBC - He… <NA>       good     
## # … with 510 more rows, and 1 more variable: weight <dbl>
```

```r
bad_guys <- superhero_info_rename %>% 
  filter(alignment !="good")
bad_guys
```

```
## # A tibble: 231 x 10
##    name  gender eye_color race  hair_color height publisher skin_color alignment
##    <chr> <chr>  <chr>     <chr> <chr>       <dbl> <chr>     <chr>      <chr>    
##  1 Abom… Male   green     Huma… No Hair       203 Marvel C… <NA>       bad      
##  2 Abra… Male   blue      Cosm… Black          NA Marvel C… <NA>       bad      
##  3 Abso… Male   blue      Human No Hair       193 Marvel C… <NA>       bad      
##  4 Air-… Male   blue      <NA>  White         188 Marvel C… <NA>       bad      
##  5 Ajax  Male   brown     Cybo… Black         193 Marvel C… <NA>       bad      
##  6 Alex… Male   <NA>      Human <NA>           NA Wildstorm <NA>       bad      
##  7 Alien Male   <NA>      Xeno… No Hair       244 Dark Hor… black      bad      
##  8 Amazo Male   red       Andr… <NA>          257 DC Comics <NA>       bad      
##  9 Ammo  Male   brown     Human Black         188 Marvel C… <NA>       bad      
## 10 Ange… Female <NA>      <NA>  <NA>           NA Image Co… <NA>       bad      
## # … with 221 more rows, and 1 more variable: weight <dbl>
```
…
8. Among the bad guys, who are the male humans over 200 inches in height?

```r
bad_guys %>%
  filter(gender == "Male") %>% 
  filter(height > "200")
```

```
## # A tibble: 29 x 10
##    name  gender eye_color race  hair_color height publisher skin_color alignment
##    <chr> <chr>  <chr>     <chr> <chr>       <dbl> <chr>     <chr>      <chr>    
##  1 Abom… Male   green     Huma… No Hair     203   Marvel C… <NA>       bad      
##  2 Alien Male   <NA>      Xeno… No Hair     244   Dark Hor… black      bad      
##  3 Amazo Male   red       Andr… <NA>        257   DC Comics <NA>       bad      
##  4 Anti… Male   yellow    God … No Hair      61   DC Comics <NA>       bad      
##  5 Apoc… Male   red       Muta… Black       213   Marvel C… grey       bad      
##  6 Bane  Male   <NA>      Human <NA>        203   DC Comics <NA>       bad      
##  7 Bloo… Male   white     <NA>  No Hair      30.5 Marvel C… <NA>       bad      
##  8 Dark… Male   red       New … No Hair     267   DC Comics grey       bad      
##  9 Doct… Male   brown     Human Brown       201   Marvel C… <NA>       bad      
## 10 Doct… Male   brown     <NA>  Brown       201   Marvel C… <NA>       bad      
## # … with 19 more rows, and 1 more variable: weight <dbl>
```

9. OK, so are there more good guys or bad guys that are bald (personal interest)?

```r
good_guys %>%
  filter(hair_color == "No Hair")
```

```
## # A tibble: 40 x 10
##    name  gender eye_color race  hair_color height publisher skin_color alignment
##    <chr> <chr>  <chr>     <chr> <chr>       <dbl> <chr>     <chr>      <chr>    
##  1 A-Bo… Male   yellow    Human No Hair       203 Marvel C… <NA>       good     
##  2 Abe … Male   blue      Icth… No Hair       191 Dark Hor… blue       good     
##  3 Abin… Male   blue      Unga… No Hair       185 DC Comics red        good     
##  4 Beta… Male   <NA>      <NA>  No Hair       201 Marvel C… <NA>       good     
##  5 Bish… Male   brown     Muta… No Hair       198 Marvel C… <NA>       good     
##  6 Blac… Male   brown     <NA>  No Hair       185 DC Comics <NA>       good     
##  7 Blaq… <NA>   black     <NA>  No Hair        NA Marvel C… <NA>       good     
##  8 Bloo… Male   black     Muta… No Hair        NA Marvel C… <NA>       good     
##  9 Crim… Male   brown     <NA>  No Hair       180 Marvel C… <NA>       good     
## 10 Dead… Male   brown     Muta… No Hair       188 Marvel C… <NA>       neutral  
## # … with 30 more rows, and 1 more variable: weight <dbl>
```

```r
bad_guys %>% 
  filter(hair_color == "No Hair")
```

```
## # A tibble: 38 x 10
##    name  gender eye_color race  hair_color height publisher skin_color alignment
##    <chr> <chr>  <chr>     <chr> <chr>       <dbl> <chr>     <chr>      <chr>    
##  1 Abom… Male   green     Huma… No Hair     203   Marvel C… <NA>       bad      
##  2 Abso… Male   blue      Human No Hair     193   Marvel C… <NA>       bad      
##  3 Alien Male   <NA>      Xeno… No Hair     244   Dark Hor… black      bad      
##  4 Anni… Male   green     <NA>  No Hair     180   Marvel C… <NA>       bad      
##  5 Anti… Male   yellow    God … No Hair      61   DC Comics <NA>       bad      
##  6 Blac… Male   black     Human No Hair     188   DC Comics <NA>       bad      
##  7 Bloo… Male   white     <NA>  No Hair      30.5 Marvel C… <NA>       bad      
##  8 Brai… Male   green     Andr… No Hair     198   DC Comics green      bad      
##  9 Dark… Male   red       New … No Hair     267   DC Comics grey       bad      
## 10 Dart… Male   yellow    Cybo… No Hair     198   George L… <NA>       bad      
## # … with 28 more rows, and 1 more variable: weight <dbl>
```
…
10. Let's explore who the really "big" superheros are. In the `superhero_info` data, which have a height over 200 or weight over 300?

```r
superhero_info_rename %>%
  select(name, height, weight) %>% 
  filter(height > "200" | weight > "300")
```

```
## # A tibble: 405 x 3
##    name              height weight
##    <chr>              <dbl>  <dbl>
##  1 A-Bomb               203    441
##  2 Abe Sapien           191     65
##  3 Abin Sur             185     90
##  4 Abomination          203    441
##  5 Adam Strange         185     88
##  6 Agent 13             173     61
##  7 Agent Bob            178     81
##  8 Ajax                 193     90
##  9 Alan Scott           180     90
## 10 Alfred Pennyworth    178     72
## # … with 395 more rows
```
…
12. ...and the superheros over 450 in weight. Bonus question! Why do we not have 16 rows in question #10?

```r
superhero_info_rename %>% 
  select(name, weight) %>% 
  filter(weight >"450")
```

```
## # A tibble: 339 x 2
##    name              weight
##    <chr>              <dbl>
##  1 Abe Sapien            65
##  2 Abin Sur              90
##  3 Adam Strange          88
##  4 Agent 13              61
##  5 Agent Bob             81
##  6 Ajax                  90
##  7 Alan Scott            90
##  8 Alfred Pennyworth     72
##  9 Angel                 68
## 10 Angel Dust            57
## # … with 329 more rows
```

We do not have 16 rows in question #10 because it includes two factors that are being filtered: height or weight. The filters for questions 12 and 13 only filter one factor, therefore don't take any other "or" factors into consideration for filtering.

## Height to Weight Ratio
13. It's easy to be strong when you are heavy and tall, but who is heavy and short? Which superheros have the highest height to weight ratio?

```r
superhero_info_rename %>%
  mutate(superhero_info_rename_ratio=height/weight) %>% 
  select(name, weight, height, superhero_info_rename_ratio) %>%
  arrange(desc(superhero_info_rename_ratio))
```

```
## # A tibble: 734 x 4
##    name            weight height superhero_info_rename_ratio
##    <chr>            <dbl>  <dbl>                       <dbl>
##  1 Groot                4    701                      175.  
##  2 Galactus            16    876                       54.8 
##  3 Fin Fang Foom       18    975                       54.2 
##  4 Longshot            36    188                        5.22
##  5 Jack-Jack           14     71                        5.07
##  6 Rocket Raccoon      25    122                        4.88
##  7 Dash                27    122                        4.52
##  8 Howard the Duck     18     79                        4.39
##  9 Swarm               47    196                        4.17
## 10 Yoda                17     66                        3.88
## # … with 724 more rows
```
…
```r
data_frame(superhero_powers)
```

```
## Warning: `data_frame()` is deprecated as of tibble 1.1.0.
## Please use `tibble()` instead.
## This warning is displayed once every 8 hours.
## Call `lifecycle::last_warnings()` to see where this warning was generated.
```

```
## # A tibble: 667 x 168
##    hero_names agility accelerated_hea… lantern_power_r… dimensional_awa…
##    <chr>      <lgl>   <lgl>            <lgl>            <lgl>           
##  1 3-D Man    TRUE    FALSE            FALSE            FALSE           
##  2 A-Bomb     FALSE   TRUE             FALSE            FALSE           
##  3 Abe Sapien TRUE    TRUE             FALSE            FALSE           
##  4 Abin Sur   FALSE   FALSE            TRUE             FALSE           
##  5 Abominati… FALSE   TRUE             FALSE            FALSE           
##  6 Abraxas    FALSE   FALSE            FALSE            TRUE            
##  7 Absorbing… FALSE   FALSE            FALSE            FALSE           
##  8 Adam Monr… FALSE   TRUE             FALSE            FALSE           
##  9 Adam Stra… FALSE   FALSE            FALSE            FALSE           
## 10 Agent Bob  FALSE   FALSE            FALSE            FALSE           
## # … with 657 more rows, and 163 more variables: cold_resistance <lgl>,
## #   durability <lgl>, stealth <lgl>, energy_absorption <lgl>, flight <lgl>,
## #   danger_sense <lgl>, underwater_breathing <lgl>, marksmanship <lgl>,
## #   weapons_master <lgl>, power_augmentation <lgl>, animal_attributes <lgl>,
## #   longevity <lgl>, intelligence <lgl>, super_strength <lgl>,
## #   cryokinesis <lgl>, telepathy <lgl>, energy_armor <lgl>,
## #   energy_blasts <lgl>, duplication <lgl>, size_changing <lgl>,
## #   density_control <lgl>, stamina <lgl>, astral_travel <lgl>,
## #   audio_control <lgl>, dexterity <lgl>, omnitrix <lgl>, super_speed <lgl>,
…
14. How many superheros have a combination of accelerated healing, durability, and super strength?

```r
superhero_powers %>%
  select(hero_names, accelerated_healing, durability, super_strength) %>%
  filter(accelerated_healing == "TRUE" & durability == "TRUE" & super_strength == "TRUE")
```

```
## # A tibble: 97 x 4
##    hero_names   accelerated_healing durability super_strength
##    <chr>        <lgl>               <lgl>      <lgl>         
##  1 A-Bomb       TRUE                TRUE       TRUE          
##  2 Abe Sapien   TRUE                TRUE       TRUE          
##  3 Angel        TRUE                TRUE       TRUE          
##  4 Anti-Monitor TRUE                TRUE       TRUE          
##  5 Anti-Venom   TRUE                TRUE       TRUE          
##  6 Aquaman      TRUE                TRUE       TRUE          
##  7 Arachne      TRUE                TRUE       TRUE          
##  8 Archangel    TRUE                TRUE       TRUE          
##  9 Ardina       TRUE                TRUE       TRUE          
## 10 Ares         TRUE                TRUE       TRUE          
## # … with 87 more rows
```
…
```r
kinesis <- superhero_powers %>%
  select(hero_names, ends_with("kinesis")) %>%
  filter_all(any_vars(.=="TRUE"))
kinesis
```

```
## # A tibble: 112 x 10
##    hero_names cryokinesis electrokinesis telekinesis hyperkinesis hypnokinesis
##    <chr>      <lgl>       <lgl>          <lgl>       <lgl>        <lgl>       
##  1 Alan Scott FALSE       FALSE          FALSE       FALSE        TRUE        
##  2 Amazo      TRUE        FALSE          FALSE       FALSE        FALSE       
##  3 Apocalypse FALSE       FALSE          TRUE        FALSE        FALSE       
##  4 Aqualad    TRUE        FALSE          FALSE       FALSE        FALSE       
##  5 Beyonder   FALSE       FALSE          TRUE        FALSE        FALSE       
##  6 Bizarro    TRUE        FALSE          FALSE       FALSE        TRUE        
##  7 Black Abb… FALSE       FALSE          TRUE        FALSE        FALSE       
##  8 Black Adam FALSE       FALSE          TRUE        FALSE        FALSE       
##  9 Black Lig… FALSE       TRUE           FALSE       FALSE        FALSE       
## 10 Black Mam… FALSE       FALSE          FALSE       FALSE        TRUE        
## # … with 102 more rows, and 4 more variables: thirstokinesis <lgl>,
## #   biokinesis <lgl>, terrakinesis <lgl>, vitakinesis <lgl>
```
…
