…
```
## 
##   carni   herbi insecti    omni 
##      19      32       5      20
```
So 32 herbivores.
7. We are interested in two groups; small and large mammals. Let's define small as less than or equal to 1kg body weight and large as greater than or equal to 200kg body weight. Make two new dataframes (large and small) based on these parameters.

```r
small <- subset(sleep, bodywt<= "1")
small
```

```
## # A tibble: 36 x 11
##    name  genus vore  order conservation sleep_total sleep_rem sleep_cycle awake
##    <chr> <chr> <chr> <chr> <chr>              <dbl>     <dbl>       <dbl> <dbl>
##  1 Owl … Aotus omni  Prim… <NA>                17         1.8      NA       7  
##  2 Grea… Blar… omni  Sori… lc                  14.9       2.3       0.133   9.1
##  3 Vesp… Calo… <NA>  Rode… <NA>                 7        NA        NA      17  
##  4 Guin… Cavis herbi Rode… domesticated         9.4       0.8       0.217  14.6
##  5 Chin… Chin… herbi Rode… domesticated        12.5       1.5       0.117  11.5
##  6 Star… Cond… omni  Sori… lc                  10.3       2.2      NA      13.7
##  7 Afri… Cric… omni  Rode… <NA>                 8.3       2        NA      15.7
##  8 Less… Cryp… omni  Sori… lc                   9.1       1.4       0.15   14.9
##  9 Big … Epte… inse… Chir… lc                  19.7       3.9       0.117   4.3
## 10 Euro… Erin… omni  Erin… lc                  10.1       3.5       0.283  13.9
## # … with 26 more rows, and 2 more variables: brainwt <dbl>, bodywt <dbl>
```

```r
large <- subset(sleep, bodywt>="200")
large
```

```
## # A tibble: 27 x 11
##    name  genus vore  order conservation sleep_total sleep_rem sleep_cycle awake
##    <chr> <chr> <chr> <chr> <chr>              <dbl>     <dbl>       <dbl> <dbl>
##  1 Chee… Acin… carni Carn… lc                  12.1      NA        NA      11.9
##  2 Cow   Bos   herbi Arti… domesticated         4         0.7       0.667  20  
##  3 Thre… Brad… herbi Pilo… <NA>                14.4       2.2       0.767   9.6
##  4 Goat  Capri herbi Arti… lc                   5.3       0.6      NA      18.7
##  5 Griv… Cerc… omni  Prim… lc                  10         0.7      NA      14  
##  6 Long… Dasy… carni Cing… lc                  17.4       3.1       0.383   6.6
##  7 Asia… Elep… herbi Prob… en                   3.9      NA        NA      20.1
##  8 Horse Equus herbi Peri… domesticated         2.9       0.6       1      21.1
##  9 Dome… Felis carni Carn… domesticated        12.5       3.2       0.417  11.5
## 10 Gira… Gira… herbi Arti… cd                   1.9       0.4      NA      22.1
## # … with 17 more rows, and 2 more variables: brainwt <dbl>, bodywt <dbl>
```
…
