…
```
## # A tibble: 1 x 1
##   n_country
##       <int>
## 1       203
```

```r
fisheries_tidy %>%
  distinct(country)
```

```
## # A tibble: 203 x 1
##    country            
##    <fct>              
##  1 Albania            
##  2 Algeria            
##  3 American Samoa     
##  4 Angola             
##  5 Anguilla           
##  6 Antigua and Barbuda
##  7 Argentina          
##  8 Aruba              
##  9 Australia          
## 10 Bahamas            
## # … with 193 more rows
```

4. Refocus the data only to include only: country, isscaap_taxonomic_group, asfis_species_name, asfis_species_number, year, catch.

```r
refocus_fisheries_tidy <- fisheries_tidy %>%
  select(country, isscaap_taxonomic_group, asfis_species_name, asfis_species_number, year, catch)
refocus_fisheries_tidy
```

```
## # A tibble: 376,771 x 6
##    country isscaap_taxonomic_g… asfis_species_na… asfis_species_num…  year catch
##    <fct>   <chr>                <chr>             <fct>              <dbl> <dbl>
##  1 Albania Sharks, rays, chima… Squatinidae       10903XXXXX          1995    NA
##  2 Albania Sharks, rays, chima… Squatinidae       10903XXXXX          1996    53
##  3 Albania Sharks, rays, chima… Squatinidae       10903XXXXX          1997    20
##  4 Albania Sharks, rays, chima… Squatinidae       10903XXXXX          1998    31
##  5 Albania Sharks, rays, chima… Squatinidae       10903XXXXX          1999    30
##  6 Albania Sharks, rays, chima… Squatinidae       10903XXXXX          2000    30
##  7 Albania Sharks, rays, chima… Squatinidae       10903XXXXX          2001    16
##  8 Albania Sharks, rays, chima… Squatinidae       10903XXXXX          2002    79
##  9 Albania Sharks, rays, chima… Squatinidae       10903XXXXX          2003     1
## 10 Albania Sharks, rays, chima… Squatinidae       10903XXXXX          2004     4
## # … with 376,761 more rows
```
…
## Warning in max(catch, na.rm = T): no non-missing arguments to max; returning -
## Inf

## Warning in max(catch, na.rm = T): no non-missing arguments to max; returning -
## Inf

## Warning in max(catch, na.rm = T): no non-missing arguments to max; returning -
## Inf

## Warning in max(catch, na.rm = T): no non-missing arguments to max; returning -
## Inf
```

```
## # A tibble: 193 x 2
##    country                  max_catch
##    <fct>                        <dbl>
##  1 China                         9068
##  2 Peru                          5717
##  3 Russian Federation            5065
##  4 Viet Nam                      4945
##  5 Chile                         4299
##  6 United States of America      2438
##  7 Philippines                    999
##  8 Japan                          988
##  9 Bangladesh                     977
## 10 Senegal                        970
## # … with 183 more rows
```
…
```r
#Code a classmate suggested
refocus_fisheries_tidy %>%
  filter(year=="2000") %>% 
  group_by(country) %>% 
 summarize(sumcatch=sum(catch,na.rm=T),
            totaln=n(),.groups= 'keep') %>% 
  arrange(desc(sumcatch))
```

```
## # A tibble: 193 x 3
## # Groups:   country [193]
##    country                  sumcatch totaln
##    <fct>                       <dbl>  <int>
##  1 China                       25899     93
##  2 Russian Federation          12181    192
##  3 United States of America    11762    438
##  4 Japan                        8510    241
##  5 Indonesia                    8341    140
##  6 Peru                         7443     54
##  7 Chile                        6906     91
##  8 India                        6351     98
##  9 Thailand                     6243    127
## 10 Korea, Republic of           6124    265
## # … with 183 more rows
```

7. Which country caught the most sardines (_Sardina pilchardus_) between the years 1990-2000?

```r
refocus_fisheries_tidy %>% 
  select(country, asfis_species_name, year, catch) %>% 
  filter(asfis_species_name == "Sardina pilchardus") %>%
  filter(year >= "1990" & year <= "2000") %>% 
  group_by(country) %>% 
  summarize(sum_max_catch = sum(catch, na.rm = T)) %>% 
  arrange(desc(sum_max_catch))
```

```
## # A tibble: 37 x 2
##    country               sum_max_catch
##    <fct>                         <dbl>
##  1 Morocco                        7470
##  2 Spain                          3507
##  3 Russian Federation             1639
##  4 Ukraine                        1030
##  5 France                          966
##  6 Portugal                        818
##  7 Greece                          528
##  8 Italy                           507
##  9 Serbia and Montenegro           478
## 10 Denmark                         477
## # … with 27 more rows
```

```r
#Why isn't year or species name coming up? Is it because of the group_by?
```

8. Which five countries caught the most cephalopods between 2008-2012?

```r
refocus_fisheries_tidy %>%
  filter(isscaap_taxonomic_group=="Squids, cuttlefishes, octopuses") %>% 
  count(asfis_species_name, sort=T)
```

```
## # A tibble: 35 x 2
##    asfis_species_name              n
##    <chr>                       <int>
##  1 Loliginidae, Ommastrephidae  3072
##  2 Octopodidae                  2935
##  3 Sepiidae, Sepiolidae         2605
##  4 Loligo spp                   1424
##  5 Sepia officinalis             699
##  6 Octopus vulgaris              611
##  7 Illex illecebrosus            460
##  8 Cephalopoda                   421
##  9 Illex argentinus              413
## 10 Loligo gahi                   281
## # … with 25 more rows
```

```r
refocus_fisheries_tidy %>%
  select(country, isscaap_taxonomic_group, year, catch) %>% 
  filter(isscaap_taxonomic_group == "Squids, cuttlefishes, octopuses") %>%
  filter(year >= 2000 & year <= 2012) %>%
  group_by(country) %>% 
  summarize(sum_max_catch = sum(catch, na.rm = T)) %>% 
  arrange(desc(sum_max_catch))
```

```
## # A tibble: 130 x 2
##    country                  sum_max_catch
##    <fct>                            <dbl>
##  1 China                            18956
##  2 Korea, Republic of               11311
##  3 Japan                             9751
##  4 Taiwan Province of China          6467
##  5 Peru                              6346
##  6 Chile                             5603
##  7 United States of America          5059
##  8 Spain                             3194
##  9 Thailand                          3039
## 10 France                            2921
## # … with 120 more rows
```


9. Which species had the highest catch total between 2008-2012? (hint: Osteichthyes is not a species)

```r
refocus_fisheries_tidy %>% 
  select(asfis_species_name, year, catch) %>%
  filter(year >= 2000 & year <= 2012) %>%
  group_by(asfis_species_name) %>%
  summarize(sum_species_max_catch = sum(catch, na.rm = T)) %>% 
  arrange(desc(sum_species_max_catch))
```

```
## # A tibble: 1,520 x 2
##    asfis_species_name    sum_species_max_catch
##    <chr>                                 <dbl>
##  1 Osteichthyes                         317398
##  2 Engraulis ringens                    121471
##  3 Theragra chalcogramma                108651
##  4 Katsuwonus pelamis                    84421
##  5 Trichiurus lepturus                   61301
##  6 Clupea harengus                       55432
##  7 Trachurus murphyi                     52480
##  8 Thunnus albacares                     50267
##  9 Scomber japonicus                     38611
## 10 Gadus morhua                          30475
## # … with 1,510 more rows
```
Engraulis ringens had the highest catch total.


10. Use the data to do at least one analysis of your choice.

```r
refocus_fisheries_tidy %>%
  filter(country == "Netherlands") %>% 
  group_by(asfis_species_name) %>%
  summarize(sum_max_catch = sum(catch, na.rm = T)) %>% 
  arrange(desc(sum_max_catch))
```

```
## # A tibble: 142 x 2
##    asfis_species_name       sum_max_catch
##    <chr>                            <dbl>
##  1 Clupea harengus                   9378
##  2 Trachurus trachurus               6820
##  3 Pleuronectes platessa             2057
##  4 Sardinella aurita                 1938
##  5 Scomber scombrus                  1930
##  6 Sardinella spp                    1750
##  7 Micromesistius poutassou          1524
##  8 Solea solea                       1434
##  9 Osteichthyes                      1198
## 10 Gadus morhua                      1138
## # … with 132 more rows
```

```r
refocus_fisheries_tidy %>%
  filter(country == "Netherlands") %>% 
  group_by(year) %>%
  summarize(sum_max_catch = sum(catch, na.rm = T)) %>% 
  arrange(desc(sum_max_catch))
```

```
## # A tibble: 63 x 2
##     year sum_max_catch
##    <dbl>         <dbl>
##  1  2003          1955
##  2  2000          1777
##  3  1996          1701
##  4  1994          1654
##  5  1995          1646
##  6  2008          1638
##  7  2004          1633
##  8  1999          1600
##  9  2005          1491
## 10  1997          1404
## # … with 53 more rows
```
…
