…
Uh oh...

<style>
div.blue { background-color:#e6f0ff; border-radius: 5px; padding: 20px;}
</style>
<div class = "blue">


```r
naniar::miss_var_summary(amphibio)
```

```
## # A tibble: 38 x 3
##    variable n_miss pct_miss
##    <chr>     <int>    <dbl>
##  1 OBS        6776    100  
##  2 Fruits     6774    100. 
##  3 Flowers    6772     99.9
##  4 Seeds      6772     99.9
##  5 Leaves     6752     99.6
##  6 Dry_cold   6735     99.4
##  7 Vert       6657     98.2
##  8 Wet_cold   6625     97.8
##  9 Crepu      6608     97.5
## 10 Dry_warm   6572     97.0
## # … with 28 more rows
```
…
```
## # A tibble: 1 x 1
##   number_nas
##        <int>
## 1     182085
```

**6. Use the package `naniar` to produce a summary, including percentages, of missing data in each column for the `amniota` data.**  

```r
naniar::miss_var_summary(amniota_na)
```

```
## # A tibble: 36 x 3
##    variable                       n_miss pct_miss
##    <chr>                           <int>    <dbl>
##  1 subspecies                      21322    100  
##  2 female_body_mass_at_maturity_g  21318    100. 
##  3 female_svl_at_maturity_cm       21120     99.1
##  4 fledging_mass_g                 21111     99.0
##  5 male_svl_cm                     21040     98.7
##  6 no_sex_maturity_d               20860     97.8
##  7 egg_width_mm                    20727     97.2
##  8 egg_length_mm                   20702     97.1
##  9 weaning_weight_g                20258     95.0
## 10 female_svl_cm                   20242     94.9
## # … with 26 more rows
```

**7. Use the package `naniar` to produce a summary, including percentages, of missing data in each column for the `amphibio` data.**

```r
naniar::miss_var_summary(amphibio_na)
```

```
## # A tibble: 38 x 3
##    variable n_miss pct_miss
##    <chr>     <int>    <dbl>
##  1 OBS        6776    100  
##  2 Fruits     6774    100. 
##  3 Flowers    6772     99.9
##  4 Seeds      6772     99.9
##  5 Leaves     6752     99.6
##  6 Dry_cold   6735     99.4
##  7 Viv        6722     99.2
##  8 Vert       6657     98.2
##  9 Wet_cold   6625     97.8
## 10 Crepu      6608     97.5
## # … with 28 more rows
```
…
**9. The `amphibio` data have variables that classify species as fossorial (burrowing), terrestrial, aquatic, or arboreal. Calculate the number of NA's in each of these variables. Do you think that the authors intend us to think that there are NA's in these columns or could they represent something else? Explain.**

```r
amphibio
```

```
## # A tibble: 6,776 x 38
##    id    Order Family Genus Species   Fos   Ter   Aqu   Arb Leaves Flowers Seeds
##    <chr> <chr> <chr>  <chr> <chr>   <dbl> <dbl> <dbl> <dbl>  <dbl>   <dbl> <lgl>
##  1 Anf0… Anura Allop… Allo… Alloph…    NA     1     1     1     NA      NA NA   
##  2 Anf0… Anura Alyti… Alyt… Alytes…    NA     1     1     1     NA      NA NA   
##  3 Anf0… Anura Alyti… Alyt… Alytes…    NA     1     1     1     NA      NA NA   
##  4 Anf0… Anura Alyti… Alyt… Alytes…    NA     1     1     1     NA      NA NA   
##  5 Anf0… Anura Alyti… Alyt… Alytes…    NA     1    NA     1     NA      NA NA   
##  6 Anf0… Anura Alyti… Alyt… Alytes…     1     1     1     1     NA      NA NA   
##  7 Anf0… Anura Alyti… Disc… Discog…     1     1     1    NA     NA      NA NA   
##  8 Anf0… Anura Alyti… Disc… Discog…     1     1     1    NA     NA      NA NA   
##  9 Anf0… Anura Alyti… Disc… Discog…     1     1     1    NA     NA      NA NA   
## 10 Anf0… Anura Alyti… Disc… Discog…     1     1     1    NA     NA      NA NA   
## # … with 6,766 more rows, and 26 more variables: Fruits <dbl>, Arthro <dbl>,
## #   Vert <dbl>, Diu <dbl>, Noc <dbl>, Crepu <dbl>, Wet_warm <dbl>,
## #   Wet_cold <dbl>, Dry_warm <dbl>, Dry_cold <dbl>, Body_mass_g <dbl>,
## #   Age_at_maturity_min_y <dbl>, Age_at_maturity_max_y <dbl>,
## #   Body_size_mm <dbl>, Size_at_maturity_min_mm <dbl>,
## #   Size_at_maturity_max_mm <dbl>, Longevity_max_y <dbl>,
## #   Litter_size_min_n <dbl>, Litter_size_max_n <dbl>,
## #   Reproductive_output_y <dbl>, Offspring_size_min_mm <dbl>,
## #   Offspring_size_max_mm <dbl>, Dir <dbl>, Lar <dbl>, Viv <dbl>, OBS <lgl>
```
…
